…
litters_df = janitor::clean_names(pups_df)
names(pups_df)
```

    ## [1] "...1"                 "1 = male, 2 = female" "...3"                
    ## [4] "...4"                 "...5"                 "...6"

### Looking at the data, and the head and tail.

``` r
litters_df
```

    ## # A tibble: 316 × 6
    ##    x1            x1_male_2_female x3      x4      x5       x6     
    ##    <chr>         <chr>            <chr>   <chr>   <chr>    <chr>  
    ##  1 <NA>          <NA>             <NA>    <NA>    <NA>     <NA>   
    ##  2 <NA>          <NA>             <NA>    <NA>    <NA>     <NA>   
    ##  3 Litter Number Sex              PD ears PD eyes PD pivot PD walk
    ##  4 #85           1                4       13      7        11     
    ##  5 #85           1                4       13      7        12     
    ##  6 #1/2/95/2     1                5       13      7        9      
    ##  7 #1/2/95/2     1                5       13      8        10     
    ##  8 #5/5/3/83/3-3 1                5       13      8        10     
    ##  9 #5/5/3/83/3-3 1                5       14      6        9      
    ## 10 #5/4/2/95/2   1                .       14      5        9      
    ## # ℹ 306 more rows
…
